{
  "$schema": "https://json-schema.org/draft/2019-09/schema",
  "title": "user_description",
  "description": "Basic schema for user description. It can be extended.",
  "type": "object",
  "required": [
    "userName",
    "role"
  ],
  "properties": {
    "userName": {
      "type": "string",
      "description": "(Required) - Full name of the user in the format (Family Name, Given Name)"
    },
    "givenName": {
      "type": "string",
      "description": "(Optional) - Given name of the user"
    },
    "familyName": {
      "type": "string",
      "description": "(Optional) - Family name of the user"
    },
    "role": {
      "type": "string",
      "description": "(Required) - Role of the user to be selected from: *Data Curator *Instrument Scientist *Principal Investigator *Project Member *Research User *Site Leader *Work Package Leader",
      "enum": [
        "Data Curator",
        "Instrument Scientist",
        "Principal Investigator",
        "Project Member",
        "Research user",
        "Site Leader",
        "Work Package Leader"
      ]
    },
    "affiliation": {
      "type": "object",
      "description": "(Optional) - Details of the institution to which the user is affiliated",
      "properties": {
        "institutionName": {
          "type": "string",
          "description": "(Optional) - Full name of the institution"
        },
        "institutionAcronym": {
          "type": "string",
          "description": "(Recommended) - Acronym of the institution"
        },
        "institutionDepartment": {
          "type": "string",
          "description": "(Optional) - Department within an institution"
        },
        "institutionID": {
          "type": "object",
          "description": "manual",
          "properties": {
            "identifierValue": {
              "type": "string",
              "description": "(Optional) - String containing the value of an identifier"
            },
            "identifierType": {
              "type": "string",
              "description": "(Optional) - Type of the identifier to be chosen from a controlled list of values (*ROR *GRID *ISNI *URL *DOI *Handle)",
              "enum": [
                "ROR",
                "GRID",
                "ISNI",
                "URL",
                "DOI",
                "Handle"
              ]
            }
          }
        }
      }
    },
    "email": {
      "type": "string",
      "description": "(Optional) - Email of the user",
      "format": "email"
    },
    "ORCID": {
      "type": "string",
      "description": "(Optional) - Open Researcher and Contributor ID expressed as a URI",
      "pattern": "^https://orcid\\.org/[0-9]{4}-[0-9]{4}-[0-9]{4}-[0-9]{3}[X0-9]{1}$"
    }
  }
}